[
    {
        "name": "nxdraw",
        "url": "https://gitlab.com/nxgamestack/nxdraw/c_nxdraw_nim",
        "method": "git",
        "tags": [
            "binding",
            "graphic"
        ],
        "description": "Bindings for nxdraw - Drawing library for game prototyping",
        "license": "BSD2",
        "web": "https://gitlab.com/nxgamestack/nxdraw/c_nxdraw_nim"
    },
    {
        "name": "nxdesk",
        "url": "https://gitlab.com/nxgamestack/nxdesk/c_nxdesk_nim",
        "method": "git",
        "tags": [
            "binding",
            "data"
        ],
        "description": "Bindings for nxdesk - Library for nxdesk datastructures",
        "license": "BSD2",
        "web": "https://gitlab.com/nxgamestack/nxdesk/c_nxdesk_nim"
    }
]